<?xml version="1.0" standalone="yes"?>
<svg width="297" height="1001">
<path style="fill:#020202; stroke:none;" d="M291 928C257.065 884.496 206.277 848.596 189.673 794C165.697 715.161 204.447 621.551 144.484 553.815C136.142 544.392 126.499 536.113 115.888 529.344C98.7141 518.389 79.4762 512.384 60 507L60 506C79.1219 500.55 98.0031 494.485 114.875 483.677C125.462 476.896 135.072 468.612 143.389 459.186C203.217 391.38 165.138 297.027 189.507 218C206.235 163.752 256.731 127.873 291 85C265.581 88.3241 240.013 92.1705 216 101.541C200.592 107.554 186.158 115.847 173.326 126.296C162.362 135.224 152.529 145.595 144.35 157.135C94.9328 226.854 126.992 314.797 105.932 392C99.1758 416.767 85.6443 437.457 68.9778 456.699C56.6989 470.875 38.9206 487.443 40.6997 507.997C42.6383 530.395 64.165 547.815 77.3651 564.183C94.422 585.334 105.687 609.219 110.438 636C123.576 710.049 99.0955 792.57 146.877 857.827C154.991 868.91 164.606 878.898 175.31 887.503C187.882 897.611 201.984 905.641 217 911.511C240.699 920.776 265.926 924.578 291 928z"/>
</svg>
