<?xml version="1.0" standalone="yes"?>
<svg width="334" height="1001">
<path style="fill:#020202; stroke:none;" d="M172 310.015C117.625 316.158 76.4185 361.857 56.4386 410C44.837 437.955 38.6947 468.075 34.8661 498C26.2565 565.293 29.9677 638.555 55.6214 702C80.386 763.246 138.087 819.497 209 802.128C249.605 792.182 309.511 747.293 285.384 699.356C282.912 694.445 279.742 689.881 276.077 685.786C273.207 682.578 270.014 679.617 266.468 677.166C243.961 661.615 229.867 689.461 214.654 702.029C195.582 717.785 173.393 717.59 155.693 699.854C137.266 681.39 129.413 655.034 125.035 630C116.458 580.95 116.863 528.891 126.355 480C131.456 453.722 141.055 423.962 164.934 408.82C194.025 390.373 220.617 417.761 249.953 419.342C266.704 420.245 286.574 411.445 289.556 393.216C292.162 377.287 280.845 361.903 270.848 350.764C245.778 322.832 209.899 305.733 172 310.015z"/>
</svg>
