<?xml version="1.0" standalone="yes"?>
<svg width="390" height="1001">
<path style="fill:#010101; stroke:none;" d="M257 96L257 355C235.686 337.589 213.383 318.685 186 312.054C120.453 296.181 69.5211 359.258 49.4269 414C32.0404 461.365 28.677 512.958 29.1434 563C29.5886 610.785 33.7164 660.166 51.3968 705C72.6001 758.768 125.78 819.416 190 800.786C220.382 791.973 244.257 768.816 267 748L267 801L340 801L340 96L257 96z"/>
<path style="fill:#ffffff; stroke:none;" d="M184.029 394.44C153.612 396.819 135.404 428.874 127.807 455.003C119.91 482.161 118.682 510.903 117.786 539C116.569 577.15 116.672 616.829 126.405 653.998C133.898 682.619 153.818 722.117 188.982 719.83C219.367 717.854 237.872 686.003 245.642 659.995C254.842 629.199 255.556 595.909 255.89 564C256.256 528.96 256.212 493.067 246.943 459.001C239.222 430.625 218.928 391.712 184.029 394.44z"/>
</svg>
