<?xml version="1.0" standalone="yes"?>
<svg width="445" height="1001">
<path style="fill:#010101; stroke:none;" d="M35 658L262 658L262 801L350 801L350 658L403 658L403 584L350 584C350 465.687 348.827 347.306 350.119 229C350.536 190.843 361.463 125.983 323.434 101.461C304.514 89.261 282.205 96.46 265.897 109.548C236.346 133.265 222.784 171.419 207.987 205C176.322 276.862 143.205 348.154 109.332 419C86.0811 467.63 58.4402 515.526 44.6748 568C36.9359 597.501 35.3522 627.644 35 658z"/>
<path style="fill:#ffffff; stroke:none;" d="M258 264L111 584L262 584C262.05 477.753 272.565 369.684 258 264z"/>
</svg>
