<?xml version="1.0" standalone="yes"?>
<svg width="390" height="1001">
<path style="fill:#020202; stroke:none;" d="M48 801L131 801C131 636.343 128.089 471.644 131.226 307C131.885 272.423 131.572 232.743 153.644 203.953C166.846 186.732 188.14 174.766 209.815 183.026C221.336 187.417 231.06 196.03 238.398 205.786C263.824 239.59 258.944 285.827 239.387 321C226.995 343.286 208.002 364.597 205.669 391C202.432 427.636 235.001 455.304 251.002 485C268.081 516.696 271.002 553.605 270.377 589C269.885 616.86 267.487 645.604 255.098 671C241.689 698.484 217.749 719.216 204.938 746.999C196.171 766.013 195.333 786.42 195 807C224.021 804.593 253.188 800.983 278.949 786.347C354.678 743.324 363.523 646.02 358.789 568C357.587 548.199 355.428 528.384 351.117 509C346.642 488.876 339.44 469.741 330.94 451C322.415 432.202 312.469 413.041 311.581 392C310.311 361.907 327.136 334.357 334.686 306C348.196 255.256 341.451 197.58 308.868 155.267C252.613 82.2143 140.729 77.6214 84.5174 153.194C53.1051 195.425 48.928 250.172 48.0958 301C46.9987 368.005 47 434.986 47 502C47 601.675 48 701.329 48 801z"/>
</svg>
