<?xml version="1.0" standalone="yes"?>
<svg width="408" height="1001">
<path style="fill:#020202; stroke:none;" d="M35 399C56.9614 429.331 80.5081 458.504 102.231 489C115.601 507.769 129.769 529.055 129.719 553C129.669 576.936 115.454 598.253 102.05 617C80.4481 647.21 56.8612 675.97 35 706C52.6871 704.539 70.3376 702.622 87.0023 696.123C121.765 682.565 148.05 653.011 170.104 623.994C185.715 603.453 201.764 579.821 201.796 553C201.827 526.231 185.978 502.608 170.513 482.006C148.449 452.613 122.116 422.474 87.0019 408.843C70.3335 402.373 52.6814 400.46 35 399M183 399C204.96 429.328 228.507 458.497 250.216 489C263.586 507.786 277.752 529.038 277.697 553C277.643 576.952 263.438 598.239 250.028 617C228.434 647.211 204.859 675.974 183 706C200.685 704.661 218.322 702.84 235.003 696.41C269.875 682.967 296.497 653.14 318.48 623.996C334.005 603.415 349.785 579.766 349.85 553C349.914 526.299 334.271 502.605 318.877 482.003C296.822 452.485 270.218 422.225 235.003 408.617C218.323 402.172 200.689 400.341 183 399z"/>
</svg>
