<?xml version="1.0" standalone="yes"?>
<svg width="445" height="1001">
<path style="fill:#020202; stroke:none;" d="M271 542C248.437 585.386 224.99 628.266 197.858 669C167.812 714.11 133.988 756.549 103 801C141.854 802.539 183.971 805.325 218.956 785.266C263.919 759.487 288.448 709.007 311.901 665C369.412 557.087 413.633 437.184 405.965 313C399.782 212.865 346.648 95.9184 233 88.9443C215.599 87.8765 197.964 89.1268 181 93.226C65.7256 121.081 31.4301 255.48 39.4632 359C41.0074 378.9 44.0832 398.738 49.3694 418C66.2517 479.516 111.584 545.299 179 555.599C210.646 560.434 241.099 551.34 271 542z"/>
<path style="fill:#ffffff; stroke:none;" d="M216.011 177.394C186.747 182.206 164.948 207.766 152.445 233.021C126.598 285.235 124.769 353.925 145.999 407.997C159.1 441.364 189.599 480.433 229.991 474.422C259.7 470 281.65 443.634 293.853 417.984C318.827 365.491 320.39 297.2 299.93 243.002C287.165 209.191 256.579 170.724 216.011 177.394z"/>
</svg>
