<?xml version="1.0" standalone="yes"?>
<svg width="371" height="1001">
<path style="fill:#020202; stroke:none;" d="M47 242C76.7323 227.257 107.839 207.89 142 207.299C187.381 206.513 232.279 241.823 276.798 218.837C283.935 215.153 290.454 210.329 296.258 204.791C303.587 197.798 309.776 189.661 314.814 180.884C322.17 168.069 326.715 154.066 331 140C300.043 152.086 268.996 172.271 235 173.366C190.081 174.813 146.223 141.612 102.206 163.881C95.0818 167.486 88.5412 172.191 82.688 177.61C74.9894 184.738 68.4839 193.1 63.201 202.153C55.9144 214.639 51.3195 228.275 47 242M122 362L122 313L48 313L48 801L131 801L131 607C131 566.474 129.165 525.375 133.266 485C136.512 453.036 148.967 394.063 191.94 396.364C234.795 398.66 241.043 456.851 243.005 489C249.332 592.702 244 697.184 244 801L327 801C327 720.701 325.737 640.285 327.258 560C328.246 507.863 335.477 453.178 322.301 402C308.381 347.929 257.711 296.572 198 312.284C168.118 320.147 144.501 341.999 122 362z"/>
</svg>
