<?xml version="1.0" standalone="yes"?>
<svg width="445" height="1001">
<path style="fill:#020202; stroke:none;" d="M57 385L125 385L103 503C65.009 506.63 41.1235 520.601 25 556L93 556L58 737C78.4735 736.758 100.163 736.918 118.257 725.927C140.404 712.474 149.143 688.052 154.439 663.999C162.283 628.373 167.598 592.061 173 556L247 556L213 737C233.51 736.758 255.178 736.899 273.329 725.948C296.29 712.096 305.165 686.822 310.746 662C318.615 627.001 324.43 591.426 330 556C368.228 552.623 392.326 538.965 408 503L340 503L362 385C397.599 378.317 420.632 362.764 440 332L372 332L406 152C379.136 153.29 352.471 156.76 332.861 177.172C292.929 218.736 312.757 292.911 254.736 321.345C241.656 327.755 227.276 329.98 213 332L245 152C232.165 153.011 219.242 154.197 207.112 158.823C150.065 180.58 160.929 249.373 132.754 292.701C119.559 312.993 99.2195 326.21 82.8113 343.536C71.2768 355.716 63.6092 369.719 57 385z"/>
<path style="fill:#ffffff; stroke:none;" d="M203 385L183 503L257 503L279 385L203 385z"/>
</svg>
