<?xml version="1.0" standalone="yes"?>
<svg width="371" height="1001">
<path style="fill:#020202; stroke:none;" d="M119 254C137.359 250.693 155.344 246.618 172.002 237.906C222.661 211.412 261.256 158.216 297 115C275.227 115.483 253.257 116.471 233.005 125.342C181.166 148.047 147.814 208.129 119 254M177 306.819C121.416 310.516 77.4234 354.784 54.9493 403C27.6473 461.574 25.3369 529.558 29.4849 593C31.9958 631.403 37.5183 670.482 53.0512 706C77.0999 760.99 130.328 811.281 194 807.102C249.878 803.434 294.066 758.549 316.304 710C343.761 650.056 345.955 580.716 341.085 516C338.298 478.957 332.701 441.267 317.698 407C293.739 352.278 240.171 302.617 177 306.819z"/>
<path style="fill:#ffffff; stroke:none;" d="M182.034 394.438C152.127 397.478 134.298 429.113 126.82 455.003C119.074 481.823 117.922 510.267 116.961 538C115.626 576.486 115.58 616.484 125.385 653.998C132.893 682.728 153.331 723.098 188.96 719.398C218.801 716.3 236.454 684.842 243.925 658.996C252.58 629.053 253.418 596.961 253.938 566C254.53 530.683 254.599 494.409 245.595 460.002C238.081 431.289 217.663 390.816 182.034 394.438z"/>
</svg>
