<?xml version="1.0" standalone="yes"?>
<svg width="594" height="1001">
<path style="fill:#020202; stroke:none;" d="M567 646C540.891 646.39 515.567 647.913 493.626 663.731C470.867 680.139 454.32 709.473 425.963 717.08C403.537 723.096 382.504 708.711 368.84 692.085C339.673 656.592 339.602 607.585 339 564L566 564C565.669 475.276 559.284 360.533 465.996 318.031C453.053 312.134 439.156 308.339 425 306.93C403.155 304.756 381.605 308.785 361 315.935C341.417 322.73 322.117 332.45 301 332.979C259.415 334.02 223.681 304.748 181 306.392C78.125 310.354 36.6878 426.501 29.8208 513C28.4216 530.624 27.9697 548.326 28.3275 566C30.2123 659.083 56.8295 787.395 167 805.867C190.042 809.73 213.07 806.129 235 798.634C255.274 791.704 275.152 781.302 297 780.793C334.712 779.915 368.194 805.244 406 807.601C462.43 811.119 514.636 776.611 541.252 727.987C555.173 702.556 561.554 674.222 567 646z"/>
<path style="fill:#ffffff; stroke:none;" d="M182.034 394.438C152.108 397.48 134.333 429.104 126.863 455.003C119.029 482.159 117.849 510.92 116.93 539C115.68 577.191 115.653 616.777 125.406 653.999C132.903 682.615 153.502 723.007 188.95 719.531C218.872 716.596 236.541 684.83 243.968 658.997C252.401 629.665 253.329 598.321 253.949 568C254.684 532.054 254.735 495.028 245.588 460.002C238.09 431.285 217.657 390.817 182.034 394.438M341 495L481 495C478.11 475.033 475.337 454.51 466.494 436.138C447.036 395.712 400.692 382.537 369.313 418.408C350.712 439.671 345.783 468.092 341 495z"/>
</svg>
