<?xml version="1.0" standalone="yes"?>
<svg width="464" height="1001">
<path style="fill:#010101; stroke:none;" d="M326 96L326 861L226 861L226 909L377 909L377 142L462 142L462 96L326 96M267 566L267 99C201.857 114.336 137.764 138.659 91.6984 189.379C9.27502 280.13 25.7236 423.431 118.259 500.653C160.868 536.211 213.902 553.239 267 566z"/>
</svg>
