<?xml version="1.0" standalone="yes"?>
<svg width="260" height="1001">
<path style="fill:#020202; stroke:none;" d="M185.609 111.27C168.447 113.098 155.284 129.034 146.161 142.249C123.586 174.948 109.051 213.802 95.7511 251C40.2868 406.122 37.4485 575.842 86.4672 733C100.969 779.494 117.745 828.289 145.379 868.81C155.267 883.308 172.383 904.729 192.565 900.992C213.083 897.192 211.24 872.085 206.996 856.979C194.907 813.946 171.519 774.395 157.247 732C102.444 569.198 112.564 385.147 177.866 227C188.981 200.081 207.96 171.664 210.572 142.175C211.957 126.546 203.678 109.346 185.609 111.27z"/>
</svg>
