<?xml version="1.0" standalone="yes"?>
<svg width="186" height="1001">
<path style="fill:#020202; stroke:none;" d="M40 96L67 327C78.564 322.102 89.8799 316.821 99.4163 308.473C130.023 281.682 129.973 237.346 133.974 200C137.688 165.335 141.721 130.711 145 96L40 96z"/>
</svg>
