<?xml version="1.0" standalone="yes"?>
<svg width="223" height="1001">
<path style="fill:#020202; stroke:none;" d="M21 900C35.6552 896.2 49.9558 891.808 62.8232 883.587C98.5943 860.734 115.762 819.74 133.471 783C148.661 751.489 163.89 720.013 178 688C151.732 686.915 123.291 685.168 99.3744 698.087C71.2784 713.263 58.9163 742.768 50.7389 772C38.955 814.125 29.7488 857.157 21 900z"/>
</svg>
