<?xml version="1.0" standalone="yes"?>
<svg width="446" height="1001">
<path style="fill:#020202; stroke:none;" d="M150 319C130.576 323.46 111.332 328.603 94.1672 339.097C82.6573 346.133 72.3509 355.155 63.9429 365.71C58.0405 373.12 53.0913 381.296 49.4145 390.032C17.7328 465.309 88.2606 538.832 135.054 588.941C145.845 600.496 156.756 611.939 167.687 623.361C182.51 638.849 197.393 654.284 211.973 670.002C232.597 692.234 254.938 715.735 267.007 744C285.103 786.38 259.177 845.071 206.997 838.955C172.781 834.945 146.41 806.559 124 783L69 819L69 820C101.667 854.718 137.876 889.577 186 900.237C260.796 916.803 352.005 864.184 352.306 782C352.478 735.294 324.898 694.62 299 658C318.529 651.821 337.823 645.033 354.773 633.23C365.049 626.074 374.327 617.425 381.983 607.504C431.518 543.322 380.996 463.632 337.604 412C329.583 402.456 321.266 393.165 312.796 384.02C301.662 372 290.269 360.221 278.857 348.467C264.063 333.231 249.044 318.215 234.237 302.993C204.564 272.488 151.47 219.989 187.982 175.624C220.584 136.009 265.909 165.932 304.999 174.483C325.477 178.962 344.947 175.961 365 171C338.893 139.813 309.823 109.104 270 96.3502C199.422 73.7477 104.155 112.642 101.189 195C99.5276 241.117 125.848 281.885 150 319z"/>
<path style="fill:#ffffff; stroke:none;" d="M160.144 376.719C118.346 384.76 113.042 432.187 127.069 465C146.246 509.86 186.263 549.612 226.001 576.801C244.295 589.319 266.978 600.973 289.816 596.025C331.205 587.057 335.095 539.466 321.139 507C302.015 462.513 262.521 423.019 222.999 396.093C204.937 383.787 182.68 372.383 160.144 376.719z"/>
</svg>
