<?xml version="1.0" standalone="yes"?>
<svg width="261" height="1001">
<path style="fill:#020202; stroke:none;" d="M20 382L149 382C93.0873 519.057 43.5613 659.54 0 801C42.3261 801 84.6778 800.58 127 801.207C155.299 801.626 186.157 804.017 211.643 789.312C233.747 776.558 245.549 754.781 255 732L109 732C164.625 594.818 214.382 454.457 258 313C219 313 180 312.944 141 313.01C115.12 313.053 87.4684 311.993 64.337 325.5C42.5145 338.244 30.204 359.718 20 382z"/>
</svg>
