<?xml version="1.0" encoding="UTF-8" standalone="no"?>
<svg
   xmlns:dc="http://purl.org/dc/elements/1.1/"
   xmlns:cc="http://creativecommons.org/ns#"
   xmlns:rdf="http://www.w3.org/1999/02/22-rdf-syntax-ns#"
   xmlns:svg="http://www.w3.org/2000/svg"
   xmlns="http://www.w3.org/2000/svg"
   xmlns:sodipodi="http://sodipodi.sourceforge.net/DTD/sodipodi-0.dtd"
   xmlns:inkscape="http://www.inkscape.org/namespaces/inkscape"
   width="390"
   height="1001"
   id="svg2"
   version="1.1"
   inkscape:version="0.48.4 r9939"
   sodipodi:docname="b.svg">
  <metadata
     id="metadata10">
    <rdf:RDF>
      <cc:Work
         rdf:about="">
        <dc:format>image/svg+xml</dc:format>
        <dc:type
           rdf:resource="http://purl.org/dc/dcmitype/StillImage" />
      </cc:Work>
    </rdf:RDF>
  </metadata>
  <defs
     id="defs8" />
  <sodipodi:namedview
     pagecolor="#ffffff"
     bordercolor="#666666"
     borderopacity="1"
     objecttolerance="10"
     gridtolerance="10"
     guidetolerance="10"
     inkscape:pageopacity="0"
     inkscape:pageshadow="2"
     inkscape:window-width="484"
     inkscape:window-height="441"
     id="namedview6"
     showgrid="false"
     inkscape:zoom="0.23576424"
     inkscape:cx="195"
     inkscape:cy="500.5"
     inkscape:window-x="0"
     inkscape:window-y="20"
     inkscape:window-maximized="0"
     inkscape:current-layer="svg2" />
  <path
     style="font-size:medium;font-style:normal;font-variant:normal;font-weight:normal;font-stretch:normal;text-indent:0;text-align:start;text-decoration:none;line-height:normal;letter-spacing:normal;word-spacing:normal;text-transform:none;direction:ltr;block-progression:tb;writing-mode:lr-tb;text-anchor:start;baseline-shift:baseline;color:#000000;fill:#010101;fill-opacity:1;stroke:none;stroke-width:1;marker:none;visibility:visible;display:inline;overflow:visible;enable-background:accumulate;font-family:Sans;-inkscape-font-specification:Sans"
     d="M 90.5 138 L 90.5 334 L 90.5 381 C 90.5 384.11775 90.109247 387.6869 90.4375 391.09375 C 90.765753 394.5006 91.847929 397.77896 94.75 400.125 C 96.500715 401.54004 98.967006 401.61743 101.71875 401 C 104.47049 400.38257 107.54576 399.06577 110.625 397.5 C 116.78348 394.36847 122.99656 390.23979 126.1875 388.875 C 155.91172 376.16391 186.89224 362.9104 219.0625 357.9375 C 229.72619 356.28897 240.33405 359.67384 249.8125 365.46875 C 259.29095 371.26366 267.63802 379.46564 273.71875 387.3125 C 301.60551 423.30155 309.36155 470.56386 312.40625 515.03125 C 316.45479 574.14136 314.55795 640.11664 292.59375 695.8125 C 281.11011 724.93348 257.00349 754.40248 223.96875 757.3125 C 212.01176 758.36533 197.81057 752.49319 186.125 749.40625 C 170.40493 745.2538 160.20509 737.70895 147.3125 728.15625 C 136.67744 720.27603 121.77743 716.49969 110.25 710.25 C 106.16665 708.03726 99.71694 705.34203 97.4375 701.53125 C 95.578492 698.42301 94.915972 693.87568 94.6875 689.1875 C 94.459028 684.49932 94.66235 679.68801 94.40625 675.96875 C 93.050263 656.27901 92.5 636.78468 92.5 617 C 92.5 568.80569 90.42502 520.13124 92.53125 472.03125 C 93.520138 449.44607 97.032577 426.64471 97.5 404 L 96.5 404 C 96.034423 426.55529 92.523362 449.30993 91.53125 471.96875 C 89.42248 520.12676 91.5 568.83431 91.5 617 C 91.5 636.80332 92.048437 656.31499 93.40625 676.03125 C 93.655846 679.65599 93.4561 684.50168 93.6875 689.25 C 93.918903 693.99832 94.571158 698.64949 96.59375 702.03125 C 99.17851 706.35247 105.76535 708.96574 109.75 711.125 C 121.44457 717.46531 136.29056 721.26497 146.6875 728.96875 C 159.58091 738.52205 169.96907 746.17345 185.875 750.375 C 197.44743 753.43206 211.68424 759.39967 224.03125 758.3125 C 257.61051 755.35452 281.95689 725.53852 293.53125 696.1875 C 315.58705 640.25936 317.45971 574.15064 313.40625 514.96875 C 310.35695 470.43414 302.59124 422.94045 274.5 386.6875 C 268.35473 378.75736 259.95705 370.50234 250.34375 364.625 C 240.73045 358.74766 229.90481 355.24203 218.9375 356.9375 C 186.59776 361.9366 155.53628 375.25784 125.8125 387.96875 C 122.39144 389.43196 116.27112 393.53153 110.1875 396.625 C 107.14569 398.17173 104.10749 399.44618 101.5 400.03125 C 98.892507 400.61632 96.775485 400.47571 95.375 399.34375 C 92.731571 397.20679 91.752172 394.2659 91.4375 391 C 91.122828 387.7341 91.5 384.19625 91.5 381 L 91.5 334 L 91.5 138 L 90.5 138 z M 95.65625 702.65625 C 87.747188 710.56597 85.21133 720.95002 84.65625 731.9375 C 84.10117 742.92498 85.5 754.54582 85.5 765 L 86.5 765 C 86.5 754.45718 85.107255 742.86702 85.65625 732 C 86.205245 721.13298 88.669112 711.01903 96.34375 703.34375 L 95.65625 702.65625 z "
     id="path4" />
</svg>
