<?xml version="1.0" encoding="UTF-8" standalone="no"?>
<svg
   xmlns:dc="http://purl.org/dc/elements/1.1/"
   xmlns:cc="http://creativecommons.org/ns#"
   xmlns:rdf="http://www.w3.org/1999/02/22-rdf-syntax-ns#"
   xmlns:svg="http://www.w3.org/2000/svg"
   xmlns="http://www.w3.org/2000/svg"
   xmlns:sodipodi="http://sodipodi.sourceforge.net/DTD/sodipodi-0.dtd"
   xmlns:inkscape="http://www.inkscape.org/namespaces/inkscape"
   width="705"
   height="1001"
   id="svg2"
   version="1.1"
   inkscape:version="0.48.4 r9939"
   sodipodi:docname="copyright.svg">
  <metadata
     id="metadata10">
    <rdf:RDF>
      <cc:Work
         rdf:about="">
        <dc:format>image/svg+xml</dc:format>
        <dc:type
           rdf:resource="http://purl.org/dc/dcmitype/StillImage" />
      </cc:Work>
    </rdf:RDF>
  </metadata>
  <defs
     id="defs8" />
  <sodipodi:namedview
     pagecolor="#ffffff"
     bordercolor="#666666"
     borderopacity="1"
     objecttolerance="10"
     gridtolerance="10"
     guidetolerance="10"
     inkscape:pageopacity="0"
     inkscape:pageshadow="2"
     inkscape:window-width="484"
     inkscape:window-height="441"
     id="namedview6"
     showgrid="false"
     inkscape:zoom="0.23576424"
     inkscape:cx="352.5"
     inkscape:cy="500.5"
     inkscape:window-x="0"
     inkscape:window-y="20"
     inkscape:window-maximized="0"
     inkscape:current-layer="svg2" />
  <path
     style="font-size:medium;font-style:normal;font-variant:normal;font-weight:normal;font-stretch:normal;text-indent:0;text-align:start;text-decoration:none;line-height:normal;letter-spacing:normal;word-spacing:normal;text-transform:none;direction:ltr;block-progression:tb;writing-mode:lr-tb;text-anchor:start;baseline-shift:baseline;color:#000000;fill:#020202;fill-opacity:1;stroke:none;stroke-width:1;marker:none;visibility:visible;display:inline;overflow:visible;enable-background:accumulate;font-family:Sans;-inkscape-font-specification:Sans"
     d="M 348.375 112.25 C 347.24187 112.24069 346.10082 112.25703 344.96875 112.28125 C 341.94989 112.34585 338.93867 112.5434 335.9375 112.9375 C 320.24049 114.99912 304.54925 115.05922 288.875 118.75 C 247.87284 128.40535 208.96265 148.53743 177.65625 176.8125 C 140.05084 210.77609 114.79073 253.00876 96.71875 299.8125 C 84.097544 332.49972 76.668184 367.16945 73.34375 401.9375 C 60.448337 536.80578 102.96853 693.82272 233.78125 759.1875 C 254.82199 769.70136 276.90402 777.42054 299.90625 782.28125 C 329.31456 788.4968 361.39312 787.9104 391.0625 784.21875 C 480.07687 773.14345 553.58172 708.4303 592.6875 630.21875 L 592.71875 630.1875 C 645.72236 524.14914 648.7526 384.10514 597.71875 276.78125 C 555.31432 187.60385 473.70937 117.92723 372.03125 113.46875 C 364.24432 113.12703 356.30693 112.31517 348.375 112.25 z M 348.375 113.25 C 356.23956 113.31709 364.14349 114.12535 371.96875 114.46875 C 473.21463 118.90827 554.53493 188.30815 596.8125 277.21875 C 647.70072 384.23639 644.68311 524.04003 591.8125 629.78125 C 552.83228 707.7417 479.54513 772.19405 390.9375 783.21875 C 361.34288 786.9011 329.34544 787.49495 300.09375 781.3125 C 277.17398 776.46921 255.18401 768.78864 234.21875 758.3125 C 103.90152 693.19528 61.443913 536.65022 74.3125 402.0625 C 77.629466 367.37255 85.073056 332.77628 97.65625 300.1875 C 115.68827 253.48724 140.87916 211.36766 178.34375 177.53125 C 209.51935 149.37432 248.28716 129.3354 289.125 119.71875 C 304.65675 116.06153 320.28351 115.97863 336.0625 113.90625 C 339.02033 113.51785 342.01014 113.34426 345 113.28125 C 346.1212 113.25762 347.25149 113.24042 348.375 113.25 z M 358 251.6875 C 316.09091 251.6362 287.34928 281.55152 272.40625 317.8125 C 249.68036 372.95955 248.6878 436.84679 254.34375 495.0625 C 258.10273 533.75419 265.45846 572.4762 286.03125 606.25 C 301.5399 631.7114 328.48349 649.27527 359 649.3125 C 368.9764 649.3247 379.66771 645.74996 389.125 643.34375 C 397.47502 641.21854 407.9608 636.56231 416.4375 629.96875 C 424.91425 623.37519 431.41102 614.82066 431.5 605 L 430.5 605 C 430.415 614.38434 424.1853 622.66781 415.84375 629.15625 C 407.5022 635.64469 397.07798 640.28721 388.875 642.375 C 379.36429 644.79479 368.7356 648.32435 359 648.3125 C 328.86651 648.2757 302.2536 630.9466 286.90625 605.75 C 266.45504 572.1758 259.06552 533.56781 255.3125 494.9375 C 249.66445 436.80321 250.68639 373.09245 273.3125 318.1875 C 288.15747 282.16448 316.56709 252.63679 358 252.6875 C 365.6889 252.6975 374.30711 255.45429 381.875 257.34375 C 393.24472 260.18293 406.37594 263.77591 414.625 272.34375 L 415.375 271.65625 C 406.85606 262.80809 393.50928 259.21782 382.125 256.375 C 374.60889 254.49846 365.9271 251.69765 358 251.6875 z "
     id="path4" />
</svg>
