<?xml version="1.0" standalone="yes"?>
<svg width="337" height="1001">
<path style="stroke:#010101; fill:none;" d="M92 138L92 421L92 504C92 514.665 88.91 530.983 92.6034 541C93.9516 544.656 98.8615 550.408 103 550.759C108.185 551.199 113.428 546.181 119 546.015C133.306 545.59 147.687 546 162 546C166.835 546 175.311 547.579 179.486 544.682C184.453 541.235 184.591 526.614 185.881 521C190.938 499 194.963 477.978 203.604 457C220.396 416.233 248.144 371.741 281 342.171C290.257 333.839 300.864 328.013 311 321M181 545C195.186 559.186 197.106 574.434 203.356 593C208.51 608.312 215.882 623.169 222.281 638C241.172 681.785 259.868 728.88 290.627 765.83C300.37 777.535 312.967 784.869 324 795M102 552L93.0895 626L92 760"/>
</svg>
