<?xml version="1.0" standalone="yes"?>
<svg width="371" height="1006">
<path style="stroke:#010101; fill:none;" d="M85 355C85 453.821 80.7142 553.227 85.0394 652C86.4001 683.077 91.6724 714.081 93 745C106.619 747.42 118.798 754.456 133 755.83C158.299 758.278 186.867 751.722 210 741.42C216.954 738.323 222.115 732.46 229 729.468C240.931 724.285 252.754 719.933 264 713.2C267.781 710.936 273.623 708.584 275.972 704.674C278.983 699.663 277.615 690.679 278.285 685C280.873 663.085 279.585 640.97 281.09 619C287.074 531.611 281 442.523 281 355M276 706C290.309 720.32 285 744.748 285 764M93 745C79.1084 758.941 85 787.233 85 806L85 965"/>
</svg>
