<?xml version="1.0" standalone="yes"?>
<svg width="371" height="1001">
<path style="stroke:#020202; fill:none;" d="M284 121L241 146.662L160 223.83L121 253M184 354.856C233.931 354.856 265.48 391 280.785 435C290.337 462.458 293.117 491.22 295.09 520C298.68 572.374 297.763 627.475 281.406 678C267.235 721.77 235.436 759.967 186 759.971C136.084 759.974 103.073 722.853 88.9753 678C72.8438 626.675 71.1835 571.127 74.9105 518C76.7788 491.368 79.6468 463.356 88.5895 438C104.029 394.223 132.974 354.856 184 354.856"/>
</svg>
