<?xml version="1.0" standalone="yes"?>
<svg width="668" height="1001">
<path style="stroke:#020202; fill:none;" d="M523 86C470.555 140.797 443.13 219.442 411.219 287C353.619 408.944 296.381 531.056 238.781 653C203.441 727.816 174.023 806.018 119 869M127 160C126.063 166.345 123.73 177.71 119.437 182.606C115.925 186.611 108.776 188.026 104 190.012C93.5243 194.368 81.1958 198.897 72.0147 205.637C57.3848 216.378 48.4534 235.622 38 250M120 184C125.989 191.081 124 201.199 124 210L124 269L124 507M546 490C542.773 495.807 536.776 496.84 531 499.284C519.303 504.234 498.987 509.333 490.637 519.213C477.8 534.403 470.658 559.19 461.753 577C442.351 615.805 421.901 654.058 402.756 693C396.066 706.608 395.466 722.172 393.424 737C392.843 741.218 390.17 749.961 393.603 753.397C396.612 756.407 404.121 755 408 755L446 755L600 755M544 494C553.118 503.227 550.718 512.881 551.015 525C551.488 544.309 552 563.623 552 583C552 664.271 553 745.654 553 827"/>
</svg>
