<?xml version="1.0" standalone="yes"?>
<svg width="260" height="1001">
<path style="stroke:#020202; fill:none;" d="M127 129.714C159.672 129.048 183.724 151.636 195.871 180C213.915 222.135 214.849 277.588 196.85 320C184.8 348.395 163.406 372.921 130 372.921C97.2261 372.921 72.9698 349.253 62.3048 320C46.7845 277.43 46.0495 228.968 60.9221 186C71.2645 156.12 93.1507 130.405 127 129.714"/>
</svg>
