<?xml version="1.0" standalone="yes"?>
<svg width="371" height="1001">
<path style="stroke:#020202; fill:none;" d="M326 144C302.203 167.813 278.961 195.236 243 198.829C202.732 202.853 162.089 177.184 122 186.654C89.1265 194.42 67.7341 219.076 45 242M184 354.856C233.999 354.856 265.452 390.921 280.785 435C290.349 462.491 293.115 491.193 295.09 520C298.679 572.364 297.758 627.491 281.406 678C267.371 721.35 235.246 760.661 186 760.661C136.965 760.661 102.056 722.481 89.091 678C74.0428 626.372 71.1658 571.428 74.9105 518C76.8205 490.748 80.2694 463.053 88.9252 437C103.411 393.4 134.137 354.856 184 354.856"/>
</svg>
