<?xml version="1.0" standalone="yes"?>
<svg width="390" height="1006">
<path style="stroke:#010101; fill:none;" d="M86 350C86 363.969 81.7803 385.919 86.6034 399C88.3565 403.755 93.5061 407.506 97 411C111.546 400.432 128.224 395.593 144 387.623C151.656 383.755 157.385 376.88 165 372.796C186.274 361.385 219.958 353.813 243 362.322C279.41 375.767 297.099 421.265 304.51 456C316.109 510.367 316.821 568.03 310.155 623C305.809 658.841 298.279 694.997 276.961 725C272.191 731.714 266.483 738.372 260 743.482C233.483 764.385 202.515 757.325 173 746.564C164.988 743.643 158.272 738.352 150 736.117C132.779 731.462 116.865 718.471 100 714.847C96.5071 714.097 93.498 717.097 92.0278 720.002C89.2388 725.512 91 734.948 91 741L91 790L91 965M96 412C95.8351 431.923 92.9119 452.073 92.0394 472C90.0191 518.138 92 564.813 92 611C92 642.929 88.6308 681.166 98 712"/>
</svg>
