<?xml version="1.0" standalone="yes"?>
<svg width="260" height="1001">
<path style="stroke:#020202; fill:none;" d="M184 145C151.6 190.594 133.095 244.92 117.279 298C74.8548 440.38 77.327 595.86 123.33 737C138.42 783.295 156.924 831.758 185 872"/>
</svg>
