<?xml version="1.0" standalone="yes"?>
<svg width="354" height="1001">
<path style="stroke:#020202; fill:none;" d="M154 113C144.113 120.265 134.402 127.549 126.439 137C103.221 164.555 94.4181 198.901 79.8218 231C66.753 259.739 50.8629 283.609 31 308M321 113C311.113 120.265 301.402 127.549 293.439 137C270.221 164.555 261.418 198.901 246.822 231C233.763 259.718 217.846 283.63 198 308"/>
</svg>
