<?xml version="1.0" standalone="yes"?>
<svg width="446" height="1001">
<path style="stroke:#020202; fill:none;" d="M119 825C134.932 840.248 153.024 855.293 174 862.911C222.283 880.445 286.892 865.222 302.905 811C306.09 800.215 309.69 788.382 308.91 777C306.969 748.654 297.441 722.879 282.575 699C273.667 684.691 269.138 672.125 264.28 656C262.833 651.196 258.761 644.085 259.904 639C261.016 634.048 267.306 629.157 272 627.978C285.13 624.682 299.048 625.099 312 620.795C342.608 610.623 363.314 577.201 361.896 545C360.123 504.752 341.337 471.12 317.349 440C292.814 408.171 261.91 380.589 230 356.424C222.434 350.695 213.923 345.682 205 342.37C199.477 340.319 191.476 339.473 188.278 333.945C181.391 322.042 181.227 306.443 175.446 294C169.126 280.396 158.407 269.069 152.336 255C134.296 213.193 137.14 159.069 181 135.309C191.648 129.54 203.203 128.273 215 126.579C229.659 124.475 244.572 126.703 259 129.818C282.574 134.906 303.781 149.135 325 160M189 336C185.083 339.917 181.107 345.197 176 347.566C163.636 353.302 146.321 350.662 133 354.774C117.123 359.674 103.798 371.59 95.865 386C60.3258 450.561 113.061 520.061 157 564C165.871 572.871 174.82 581.553 184 590.089C205.605 610.18 229.466 631.167 259 638"/>
</svg>
