<?xml version="1.0" standalone="yes"?>
<svg width="205" height="1001">
<path style="stroke:#010101; fill:none;" d="M112 179C108.706 203.462 102.79 227.173 101.09 252C96.6614 316.663 101 383.168 101 448L101 760M43 350L159 350"/>
</svg>
