<?xml version="1.0" standalone="yes"?>
<svg width="353" height="1001">
<path style="stroke:#020202; fill:none;" d="M129 134C171.645 125.871 225.664 144.345 228.787 194C229.723 208.883 222.184 231.176 216.829 245C210.378 261.655 195.422 272.517 188.14 289C186.3 293.164 182.001 299.314 182.56 304C184.052 316.509 196.613 327.318 205 335.09C215.843 345.139 225.095 356.231 230.771 370C251.802 421.019 231.392 479.196 177 497.484C157.996 503.874 143.252 501.311 124 500M156 308L181 304"/>
</svg>
