<?xml version="1.0" standalone="yes"?>
<svg width="317" height="1006">
<path style="stroke:#020202; fill:none;" d="M94 177L94 207M227 177L227 207M296 331C261.393 365.61 250.819 413.654 241.551 460C231.927 508.124 220.573 555.905 210.801 604C207.684 619.339 204.819 634.789 201.13 650C199.697 655.908 199.322 663.678 196.062 668.907C192.737 674.24 185.12 677.912 180 681.333C175.641 684.246 168.508 691.711 163 691.454C157.493 691.198 150.356 683.961 146 680.859C142.246 678.185 137.416 675.75 134.728 671.907C130.58 665.976 129.728 655.938 127.849 649C123.685 633.626 118.934 618.404 114.884 603C103.127 558.281 92.3937 513.136 82.4244 468C71.893 420.319 60.9462 369.513 26 333M163 693C163 728.863 158.731 764.378 155.169 800C151.115 840.549 147.219 879.397 133.086 918C123.308 944.707 110.109 974.188 88 993"/>
</svg>
